Sandhyakanduri - Codework
…
# Ensure AREA_TITLE is in lowercase to match the state names
Occupations_cleaned <- Occupation %>%
  mutate(AREA_TITLE = tolower(AREA_TITLE)) %>%
  left_join(state_abbreviations, by = c("AREA_TITLE" = "state"))

# Summarize the median wage by area (state abbreviations)
state_wages <- Occupations_cleaned %>%
  group_by(abbreviation) %>%
  summarize(median_wage = mean(A_MEDIAN, na.rm = TRUE))

# Double-check the merged data
print(state_wages)

# A tibble: 51 × 2
   abbreviation median_wage
   <chr>              <dbl>
 1 AK                206300
 2 AL                203570
 3 AR                206520
 4 AZ                206950
 5 CA                207780
 6 CO                207590
 7 CT                206370
 8 DE                206480
 9 FL                206770
10 GA                207400
# ℹ 41 more rows
…
